{
    "token": "",
    "baseUrl": "https://www.wrike.com/api/v4",
    "permalinkPrefix": "https://www.wrike.com/open.htm?id=",
    "tasks": {
        "default": "",
        "mt": "",
        "of": "",
        "rs": ""
    },
    "settings": {
        "continueOnTimeout": true
    }
}